%YAML 1.1
%TAG !u! tag:unity3d.com,2011:
--- !u!1045 &1
EditorBuildSettings:
  m_ObjectHideFlags: 0
  serializedVersion: 2
  m_Scenes:
  - enabled: 1
    path: Assets/Scenes/SampleScene.unity
    guid: 9fc0d4010bbf28b4594072e72b8655ab
  m_configObjects:
    UnityEditor.XR.ARCore.ARCoreSettings: {fileID: 11400000, guid: e955b783c86a0254dabca33e4818b75d, type: 2}
    UnityEditor.XR.ARKit.ARKitSettings: {fileID: 11400000, guid: eb05e1cfdfe38544eb9af136e1e21bc4, type: 2}
    com.unity.xr.magicleap.magic_leap_settings: {fileID: 11400000, guid: 1d5e9cbfc50f7e546ab56a94fc75d57b, type: 2}
    com.unity.xr.management.loader_settings: {fileID: 11400000, guid: 6b9f1b243043ff44eb37bb2a71136c42, type: 2}
    com.unity.xr.openxr.settings4: {fileID: 11400000, guid: 34808044317a9e246895d7d6a61145ed, type: 2}
